%YAML 1.1
%TAG !u! tag:unity3d.com,2011:
--- !u!1 &5304864035466127450
GameObject:
  m_ObjectHideFlags: 0
  m_CorrespondingSourceObject: {fileID: 0}
  m_PrefabInstance: {fileID: 0}
  m_PrefabAsset: {fileID: 0}
  serializedVersion: 6
  m_Component:
  - component: {fileID: 7796004663505612483}
  - component: {fileID: 7829062858001759708}
  m_Layer: 8
  m_Name: Food
  m_TagString: Untagged
  m_Icon: {fileID: 0}
  m_NavMeshLayer: 0
  m_StaticEditorFlags: 0
  m_IsActive: 1
--- !u!4 &7796004663505612483
Transform:
  m_ObjectHideFlags: 0
  m_CorrespondingSourceObject: {fileID: 0}
  m_PrefabInstance: {fileID: 0}
  m_PrefabAsset: {fileID: 0}
  m_GameObject: {fileID: 5304864035466127450}
  m_LocalRotation: {x: 0, y: 0, z: 0, w: 1}
  m_LocalPosition: {x: 0, y: 0, z: 0}
  m_LocalScale: {x: 1, y: 1, z: 1}
  m_Children:
  - {fileID: 383488950973418622}
  m_Father: {fileID: 0}
  m_RootOrder: 0
  m_LocalEulerAnglesHint: {x: 0, y: 0, z: 0}
--- !u!114 &7829062858001759708
MonoBehaviour:
  m_ObjectHideFlags: 0
  m_CorrespondingSourceObject: {fileID: 0}
  m_PrefabInstance: {fileID: 0}
  m_PrefabAsset: {fileID: 0}
  m_GameObject: {fileID: 5304864035466127450}
  m_Enabled: 1
  m_EditorHideFlags: 0
  m_Script: {fileID: 11500000, guid: 0d9c1ec64d36937468ba1a0fc30d99a1, type: 3}
  m_Name: 
  m_EditorClassIdentifier: 
--- !u!1001 &7899656721361417788
PrefabInstance:
  m_ObjectHideFlags: 0
  serializedVersion: 2
  m_Modification:
    m_TransformParent: {fileID: 7796004663505612483}
    m_Modifications:
    - target: {fileID: 7562487998727125570, guid: 7528d9317919b42b18ff58dc23a7b82e,
        type: 3}
      propertyPath: m_LocalPosition.x
      value: 0
      objectReference: {fileID: 0}
    - target: {fileID: 7562487998727125570, guid: 7528d9317919b42b18ff58dc23a7b82e,
        type: 3}
      propertyPath: m_LocalPosition.y
      value: 0.498
      objectReference: {fileID: 0}
    - target: {fileID: 7562487998727125570, guid: 7528d9317919b42b18ff58dc23a7b82e,
        type: 3}
      propertyPath: m_LocalPosition.z
      value: 0.079
      objectReference: {fileID: 0}
    - target: {fileID: 7562487998727125570, guid: 7528d9317919b42b18ff58dc23a7b82e,
        type: 3}
      propertyPath: m_LocalRotation.x
      value: -0.57441366
      objectReference: {fileID: 0}
    - target: {fileID: 7562487998727125570, guid: 7528d9317919b42b18ff58dc23a7b82e,
        type: 3}
      propertyPath: m_LocalRotation.y
      value: -0
      objectReference: {fileID: 0}
    - target: {fileID: 7562487998727125570, guid: 7528d9317919b42b18ff58dc23a7b82e,
        type: 3}
      propertyPath: m_LocalRotation.z
      value: -0
      objectReference: {fileID: 0}
    - target: {fileID: 7562487998727125570, guid: 7528d9317919b42b18ff58dc23a7b82e,
        type: 3}
      propertyPath: m_LocalRotation.w
      value: 0.8185652
      objectReference: {fileID: 0}
    - target: {fileID: 7562487998727125570, guid: 7528d9317919b42b18ff58dc23a7b82e,
        type: 3}
      propertyPath: m_RootOrder
      value: 0
      objectReference: {fileID: 0}
    - target: {fileID: 7562487998727125570, guid: 7528d9317919b42b18ff58dc23a7b82e,
        type: 3}
      propertyPath: m_LocalEulerAnglesHint.x
      value: -70.117004
      objectReference: {fileID: 0}
    - target: {fileID: 7562487998727125570, guid: 7528d9317919b42b18ff58dc23a7b82e,
        type: 3}
      propertyPath: m_LocalEulerAnglesHint.y
      value: 0
      objectReference: {fileID: 0}
    - target: {fileID: 7562487998727125570, guid: 7528d9317919b42b18ff58dc23a7b82e,
        type: 3}
      propertyPath: m_LocalEulerAnglesHint.z
      value: 0
      objectReference: {fileID: 0}
    - target: {fileID: 7562487998727546466, guid: 7528d9317919b42b18ff58dc23a7b82e,
        type: 3}
      propertyPath: m_Name
      value: Meat
      objectReference: {fileID: 0}
    - target: {fileID: 7562487998727546466, guid: 7528d9317919b42b18ff58dc23a7b82e,
        type: 3}
      propertyPath: m_Layer
      value: 8
      objectReference: {fileID: 0}
    m_RemovedComponents: []
  m_SourcePrefab: {fileID: 100100000, guid: 7528d9317919b42b18ff58dc23a7b82e, type: 3}
--- !u!4 &383488950973418622 stripped
Transform:
  m_CorrespondingSourceObject: {fileID: 7562487998727125570, guid: 7528d9317919b42b18ff58dc23a7b82e,
    type: 3}
  m_PrefabInstance: {fileID: 7899656721361417788}
  m_PrefabAsset: {fileID: 0}
